{
    "__comment": "Model generated using MrCrayfish's Model Creator (http://mrcrayfish.com/modelcreator/)",
    "textures": {
        "particle": "ctm:blocks/bunbottom",
        "0": "ctm:blocks/bunsides",
        "1": "ctm:blocks/bunnorth",
        "2": "ctm:blocks/bunbottom",
        "3": "ctm:blocks/burger",
        "4": "ctm:blocks/burger",
        "5": "ctm:blocks/lettuceside",
        "6": "ctm:blocks/lettucetop",
        "7": "ctm:blocks/tomatoside",
        "8": "ctm:blocks/tomatotop",
        "9": "ctm:blocks/cheese",
        "10": "ctm:blocks/bunbottom"
   },
    "display": {
        "gui": {
            "rotation": [ 30, 225, 0 ],
            "translation": [ 0, 1, 0],
            "scale":[ 0.8, 0.8, 0.8 ]
        },
        "ground": {
            "rotation": [ 0, 0, 0 ],
            "translation": [ 0, 3, 0],
            "scale":[ 0.4, 0.4, 0.4 ]
        },
        "fixed": {
            "rotation": [ 0, 0, 0 ],
            "translation": [ 0, 0, 0],
            "scale":[ 0.5, 0.5, 0.5 ]
        },
        "thirdperson_righthand": {
            "rotation": [ 75, 45, 0 ],
            "translation": [ 0, 2.5, 2],
            "scale": [ 0.6, 0.6, 0.6 ]
        },
        "firstperson_righthand": {
            "rotation": [ 0, 45, 0 ],
            "translation": [ 0, 0, 0 ],
            "scale": [ 0.60, 0.60, 0.60 ]
        },
        "firstperson_lefthand": {
            "rotation": [ 0, 225, 0 ],
            "translation": [ 0, 0, 0 ],
            "scale": [ 0.60, 0.60, 0.60 ]
        }
    },
    
    "elements": [
        {
            "name": "BunTop",
            "from": [ 1.0, 1.0, 1.0 ], 
            "to": [ 15.0, 5.0, 15.0 ], 
            "shade": false,
            "faces": {
                "north": { "texture": "#0", "uv": [ 0.0, 0.0, 16.0, 4.0 ] },
                "east": { "texture": "#0", "uv": [ 0.0, 0.0, 16.0, 4.0 ] },
                "south": { "texture": "#0", "uv": [ 0.0, 0.0, 16.0, 4.0 ] },
                "west": { "texture": "#0", "uv": [ 0.0, 0.0, 16.0, 4.0 ] },
                "up": { "texture": "#1", "uv": [ 0.0, 16.0, 16.0, 0.0 ] },
                "down": { "texture": "#0", "uv": [ 0.0, 0.0, 16.0, 16.0 ] }
            }
        },
        {
            "name": "BunBottom",
            "from": [ 2.0, 0.0, 2.0 ], 
            "to": [ 14.0, 1.0, 14.0 ], 
            "shade": false,
            "faces": {
                "north": { "texture": "#2", "uv": [ 0.0, 0.0, 12.0, 1.0 ] },
                "east": { "texture": "#2", "uv": [ 0.0, 0.0, 12.0, 1.0 ] },
                "south": { "texture": "#2", "uv": [ 0.0, 0.0, 12.0, 1.0 ] },
                "west": { "texture": "#2", "uv": [ 0.0, 0.0, 12.0, 1.0 ] },
                "up": { "texture": "#2", "uv": [ 0.0, 0.0, 12.0, 12.0 ] },
                "down": { "texture": "#2", "uv": [ 0.0, 0.0, 12.0, 12.0 ] }
            }
        },
        {
            "name": "Meat",
            "from": [ 0.0, 5.0, 0.0 ], 
            "to": [ 16.0, 7.0, 16.0 ], 
            "shade": false,
            "faces": {
                "north": { "texture": "#3", "uv": [ 2.0, 2.0, 16.0, 0.0 ] },
                "east": { "texture": "#4", "uv": [ 0.0, 0.0, 16.0, 2.0 ] },
                "south": { "texture": "#4", "uv": [ 0.0, 0.0, 16.0, 2.0 ] },
                "west": { "texture": "#4", "uv": [ 0.0, 0.0, 16.0, 2.0 ] },
                "up": { "texture": "#4", "uv": [ 0.0, 0.0, 16.0, 16.0 ] },
                "down": { "texture": "#4", "uv": [ 0.0, 0.0, 16.0, 16.0 ] }
            }
        },
        {
            "name": "Lettuce",
            "from": [ 0.0, 7.0, 0.0 ], 
            "to": [ 16.0, 8.0, 16.0 ], 
            "shade": false,
            "faces": {
                "north": { "texture": "#5", "uv": [ 2.0, 2.0, 16.0, 0.0 ] },
                "east": { "texture": "#5", "uv": [ 0.0, 0.0, 16.0, 2.0 ] },
                "south": { "texture": "#5", "uv": [ 0.0, 0.0, 16.0, 2.0 ] },
                "west": { "texture": "#5", "uv": [ 0.0, 0.0, 16.0, 2.0 ] },
                "up": { "texture": "#6", "uv": [ 0.0, 0.0, 16.0, 16.0 ] },
                "down": { "texture": "#5", "uv": [ 0.0, 0.0, 16.0, 16.0 ] }
            }
        },
        {
            "name": "Tomato",
            "from": [ 1.0, 8.0, 1.0 ], 
            "to": [ 7.0, 9.0, 7.0 ], 
            "shade": false,
            "faces": {
                "north": { "texture": "#7", "uv": [ 0.0, 0.0, 6.0, 1.0 ] },
                "east": { "texture": "#7", "uv": [ 0.0, 0.0, 6.0, 1.0 ] },
                "south": { "texture": "#7", "uv": [ 0.0, 0.0, 6.0, 1.0 ] },
                "west": { "texture": "#7", "uv": [ 0.0, 0.0, 6.0, 1.0 ] },
                "up": { "texture": "#8", "uv": [ 0.0, 0.0, 16.0, 16.0 ] },
                "down": { "texture": "#7", "uv": [ 0.0, 0.0, 6.0, 6.0 ] }
            }
        },
        {
            "name": "Tomato",
            "from": [ 8.0, 8.0, 8.0 ], 
            "to": [ 14.0, 9.0, 14.0 ], 
            "shade": false,
            "faces": {
                "north": { "texture": "#7", "uv": [ 0.0, 0.0, 6.0, 1.0 ] },
                "east": { "texture": "#7", "uv": [ 0.0, 0.0, 6.0, 1.0 ] },
                "south": { "texture": "#7", "uv": [ 0.0, 0.0, 6.0, 1.0 ] },
                "west": { "texture": "#7", "uv": [ 0.0, 0.0, 6.0, 1.0 ] },
                "up": { "texture": "#8", "uv": [ 0.0, 0.0, 16.0, 16.0 ] },
                "down": { "texture": "#7", "uv": [ 0.0, 0.0, 6.0, 6.0 ] }
            }
        },
        {
            "name": "Cheese",
            "from": [ 2.0, 9.0, 2.0 ], 
            "to": [ 14.0, 10.0, 14.0 ], 
            "shade": false,
            "faces": {
                "north": { "texture": "#9", "uv": [ 2.0, 2.0, 16.0, 0.0 ] },
                "east": { "texture": "#9", "uv": [ 0.0, 0.0, 12.0, 1.0 ] },
                "south": { "texture": "#9", "uv": [ 0.0, 0.0, 12.0, 1.0 ] },
                "west": { "texture": "#9", "uv": [ 0.0, 0.0, 9.0, 0.0 ] },
                "up": { "texture": "#9", "uv": [ 0.0, 0.0, 12.0, 12.0 ] },
                "down": { "texture": "#9", "uv": [ 0.0, 0.0, 12.0, 12.0 ] }
            }
        },
        {
            "name": "BunTop2",
            "from": [ 0.0, 10.0, 0.0 ], 
            "to": [ 16.0, 14.0, 16.0 ], 
            "shade": false,
            "faces": {
                "north": { "texture": "#0", "uv": [ 0.0, 0.0, 16.0, 4.0 ] },
                "east": { "texture": "#0", "uv": [ 0.0, 0.0, 16.0, 4.0 ] },
                "south": { "texture": "#0", "uv": [ 0.0, 0.0, 16.0, 4.0 ] },
                "west": { "texture": "#0", "uv": [ 0.0, 0.0, 16.0, 4.0 ] },
                "up": { "texture": "#2", "uv": [ 0.0, 16.0, 16.0, 0.0 ] },
                "down": { "texture": "#1", "uv": [ 0.0, 0.0, 16.0, 16.0 ] }
            }
        },
        {
            "name": "BunBottom2",
            "from": [ 2.0, 14.0, 2.0 ], 
            "to": [ 14.0, 16.0, 14.0 ], 
            "shade": false,
            "faces": {
                "north": { "texture": "#10", "uv": [ 0.0, 0.0, 16.0, 4.0 ] },
                "east": { "texture": "#2", "uv": [ 0.0, 0.0, 16.0, 4.0 ] },
                "south": { "texture": "#2", "uv": [ 0.0, 0.0, 16.0, 4.0 ] },
                "west": { "texture": "#2", "uv": [ 0.0, 0.0, 16.0, 4.0 ] },
                "up": { "texture": "#2", "uv": [ 0.0, 0.0, 12.0, 12.0 ] },
                "down": { "texture": "#2", "uv": [ 0.0, 0.0, 12.0, 12.0 ] }
            }
        }
    ]
}